{
    "name": "govcms/govcms-project",
    "description": "Project template for GovCMS Drupal 8 projects with composer",
    "type": "project",
    "license": "GPL-2.0-or-later",
    "repositories": [
        {
            "type": "composer",
            "url": "https://packages.drupal.org/8"
        },
        {
            "type": "composer",
            "url": "https://asset-packagist.org"
        },
        {
            "type": "path",
            "url": "/src",
            "options": {
                "symlink": false
            }
        }
    ],
    "require": {
        "composer/installers": "^1.2",
        "cweagans/composer-patches": "^1.6.5",
        "drupal-composer/drupal-scaffold": "^2.5",
        "drupal/console": "^1.0.2",
        "drupal/core": "8.6.10",
        "drush/drush": "^9.0.0",
        "govcms/govcms": "1.0.0-beta2",
        "webflo/drupal-finder": "^1.0.0",
        "webmozart/path-util": "^2.3"
    },
    "conflict": {
        "drupal/drupal": "*"
    },
    "minimum-stability": "dev",
    "prefer-stable": true,
    "config": {
        "sort-packages": true
    },
    "autoload": {
        "classmap": [
            "scripts/composer/ScriptHandler.php"
        ]
    },
    "scripts": {
        "pre-install-cmd": [
            "DrupalProject\\composer\\ScriptHandler::checkComposerVersion"
        ],
        "pre-update-cmd": [
            "DrupalProject\\composer\\ScriptHandler::checkComposerVersion"
        ],
        "post-install-cmd": [
            "DrupalProject\\composer\\ScriptHandler::createRequiredFiles"
        ],
        "post-update-cmd": [
            "DrupalProject\\composer\\ScriptHandler::createRequiredFiles"
        ]
    },
    "extra": {
        "patchLevel": {
            "drupal/core": "-p2"
        },
        "installer-types": ["bower-asset", "npm-asset"],
        "installer-paths": {
            "web/core": [
                "type:drupal-core"
            ],
            "web/libraries/{$name}": [
                "type:drupal-library", "type:bower-asset", "type:npm-asset"
            ],
            "web/modules/contrib/{$name}": [
                "type:drupal-module"
            ],
            "web/profiles/contrib/{$name}": [
                "type:drupal-profile"
            ],
            "web/themes/contrib/{$name}": [
                "type:drupal-theme"
            ],
            "drush/Commands/{$name}": [
                "type:drupal-drush"
            ]
        },
        "drupal-scaffold": {
            "initial": {
                ".editorconfig": "../.editorconfig",
                ".gitattributes": "../.gitattributes"
            }
        }
    }
}
